This is pdfTeX, Version 3.14159265-2.6-1.40.17 (MiKTeX 2.9.6210 64-bit) (preloaded format=pdflatex 2017.4.13)  23 APR 2017 22:32
entering extended mode
**./Application1.ltx
(Application1.ltx
LaTeX2e <2017/01/01> patch level 3
Babel <3.9r> and hyphenation patterns for 76 language(s) loaded.
("C:\Program Files\MiKTeX 2.9\tex\latex\base\report.cls"
Document Class: report 2014/09/29 v1.4h Standard LaTeX document class
("C:\Program Files\MiKTeX 2.9\tex\latex\base\size11.clo"
File: size11.clo 2014/09/29 v1.4h Standard LaTeX file (size option)
)
\c@part=\count79
\c@chapter=\count80
\c@section=\count81
\c@subsection=\count82
\c@subsubsection=\count83
\c@paragraph=\count84
\c@subparagraph=\count85
\c@figure=\count86
\c@table=\count87
\abovecaptionskip=\skip41
\belowcaptionskip=\skip42
\bibindent=\dimen102
) ("C:\Program Files\MiKTeX 2.9\tex\latex\graphics\graphicx.sty"
Package: graphicx 2014/10/28 v1.0g Enhanced LaTeX Graphics (DPC,SPQR)
 ("C:\Program Files\MiKTeX 2.9\tex\latex\graphics\keyval.sty"
Package: keyval 2014/10/28 v1.15 key=value parser (DPC)
\KV@toks@=\toks14
)
("C:\Program Files\MiKTeX 2.9\tex\latex\graphics\graphics.sty"
Package: graphics 2016/10/09 v1.0u Standard LaTeX Graphics (DPC,SPQR)
 ("C:\Program Files\MiKTeX 2.9\tex\latex\graphics\trig.sty"
Package: trig 2016/01/03 v1.10 sin cos tan (DPC)
) ("C:\Program Files\MiKTeX 2.9\tex\latex\graphics-cfg\graphics.cfg"
File: graphics.cfg 2016/06/04 v1.11 sample graphics configuration
)
Package graphics Info: Driver file: pdftex.def on input line 99.

("C:\Program Files\MiKTeX 2.9\tex\latex\graphics-def\pdftex.def"
File: pdftex.def 2017/01/12 v0.06k Graphics/color for pdfTeX

("C:\Program Files\MiKTeX 2.9\tex\generic\oberdiek\infwarerr.sty"
Package: infwarerr 2016/05/16 v1.4 Providing info/warning/error messages (HO)
)
("C:\Program Files\MiKTeX 2.9\tex\generic\oberdiek\ltxcmds.sty"
Package: ltxcmds 2016/05/16 v1.23 LaTeX kernel commands for general use (HO)
)
\Gread@gobject=\count88
))
\Gin@req@height=\dimen103
\Gin@req@width=\dimen104
) (Application1.aux)
\openout1 = `Application1.aux'.

LaTeX Font Info:    Checking defaults for OML/cmm/m/it on input line 5.
LaTeX Font Info:    ... okay on input line 5.
LaTeX Font Info:    Checking defaults for T1/cmr/m/n on input line 5.
LaTeX Font Info:    ... okay on input line 5.
LaTeX Font Info:    Checking defaults for OT1/cmr/m/n on input line 5.
LaTeX Font Info:    ... okay on input line 5.
LaTeX Font Info:    Checking defaults for OMS/cmsy/m/n on input line 5.
LaTeX Font Info:    ... okay on input line 5.
LaTeX Font Info:    Checking defaults for OMX/cmex/m/n on input line 5.
LaTeX Font Info:    ... okay on input line 5.
LaTeX Font Info:    Checking defaults for U/cmr/m/n on input line 5.
LaTeX Font Info:    ... okay on input line 5.

("C:\Program Files\MiKTeX 2.9\tex\context\base\supp-pdf.mkii"
[Loading MPS to PDF converter (version 2006.09.02).]
\scratchcounter=\count89
\scratchdimen=\dimen105
\scratchbox=\box26
\nofMPsegments=\count90
\nofMParguments=\count91
\everyMPshowfont=\toks15
\MPscratchCnt=\count92
\MPscratchDim=\dimen106
\MPnumerator=\count93
\makeMPintoPDFobject=\count94
\everyMPtoPDFconversion=\toks16
) ("C:\Program Files\MiKTeX 2.9\tex\generic\oberdiek\pdftexcmds.sty"
Package: pdftexcmds 2017/03/19 v0.25 Utility functions of pdfTeX for LuaTeX (HO)

("C:\Program Files\MiKTeX 2.9\tex\generic\oberdiek\ifluatex.sty"
Package: ifluatex 2016/05/16 v1.4 Provides the ifluatex switch (HO)
Package ifluatex Info: LuaTeX not detected.
)
("C:\Program Files\MiKTeX 2.9\tex\generic\oberdiek\ifpdf.sty"
Package: ifpdf 2017/03/15 v3.2 Provides the ifpdf switch
)
Package pdftexcmds Info: LuaTeX not detected.
Package pdftexcmds Info: \pdf@primitive is available.
Package pdftexcmds Info: \pdf@ifprimitive is available.
Package pdftexcmds Info: \pdfdraftmode found.
)
("C:\Program Files\MiKTeX 2.9\tex\latex\oberdiek\epstopdf-base.sty"
Package: epstopdf-base 2016/05/15 v2.6 Base part for package epstopdf

("C:\Program Files\MiKTeX 2.9\tex\latex\oberdiek\grfext.sty"
Package: grfext 2016/05/16 v1.2 Manage graphics extensions (HO)

("C:\Program Files\MiKTeX 2.9\tex\generic\oberdiek\kvdefinekeys.sty"
Package: kvdefinekeys 2016/05/16 v1.4 Define keys (HO)
))
("C:\Program Files\MiKTeX 2.9\tex\latex\oberdiek\kvoptions.sty"
Package: kvoptions 2016/05/16 v3.12 Key value format for package options (HO)

("C:\Program Files\MiKTeX 2.9\tex\generic\oberdiek\kvsetkeys.sty"
Package: kvsetkeys 2016/05/16 v1.17 Key value parser (HO)

("C:\Program Files\MiKTeX 2.9\tex\generic\oberdiek\etexcmds.sty"
Package: etexcmds 2016/05/16 v1.6 Avoid name clashes with e-TeX commands (HO)
Package etexcmds Info: Could not find \expanded.
(etexcmds)             That can mean that you are not using pdfTeX 1.50 or
(etexcmds)             that some package has redefined \expanded.
(etexcmds)             In the latter case, load this package earlier.
)))
Package epstopdf-base Info: Redefining graphics rule for `.eps' on input line 438.
Package grfext Info: Graphics extension search list:
(grfext)             [.png,.pdf,.jpg,.mps,.jpeg,.jbig2,.jb2,.PNG,.PDF,.JPG,.JPEG,.JBIG2,.JB2,.eps]
(grfext)             \AppendGraphicsExtensions on input line 456.
) <GrapheTousN20.pdf, id=1, 612.2875pt x 461.725pt>
File: GrapheTousN20.pdf Graphic file (type pdf)

<use GrapheTousN20.pdf>
Package pdftex.def Info: GrapheTousN20.pdf used on input line 9.
(pdftex.def)             Requested size: 360.0pt x 271.47131pt.
 <GrapheTousN40.pdf, id=2, 612.2875pt x 461.725pt>
File: GrapheTousN40.pdf Graphic file (type pdf)
 <use GrapheTousN40.pdf>
Package pdftex.def Info: GrapheTousN40.pdf used on input line 14.
(pdftex.def)             Requested size: 360.0pt x 271.47131pt.

<ErreursTousN20.pdf, id=3, 612.2875pt x 461.725pt>
File: ErreursTousN20.pdf Graphic file (type pdf)
 <use ErreursTousN20.pdf>
Package pdftex.def Info: ErreursTousN20.pdf used on input line 19.
(pdftex.def)             Requested size: 360.0pt x 271.47131pt.


LaTeX Warning: `!h' float specifier changed to `!ht'.

<ErreursTousN40.pdf, id=4, 612.2875pt x 461.725pt>
File: ErreursTousN40.pdf Graphic file (type pdf)
 <use ErreursTousN40.pdf>
Package pdftex.def Info: ErreursTousN40.pdf used on input line 24.
(pdftex.def)             Requested size: 360.0pt x 271.47131pt.


LaTeX Warning: `!h' float specifier changed to `!ht'.

<GrapheEuler.pdf, id=5, 612.2875pt x 461.725pt>
File: GrapheEuler.pdf Graphic file (type pdf)
 <use GrapheEuler.pdf>
Package pdftex.def Info: GrapheEuler.pdf used on input line 29.
(pdftex.def)             Requested size: 360.0pt x 271.47131pt.


LaTeX Warning: `!h' float specifier changed to `!ht'.

<ErreursEuler.pdf, id=6, 612.2875pt x 461.725pt>
File: ErreursEuler.pdf Graphic file (type pdf)
 <use ErreursEuler.pdf>
Package pdftex.def Info: ErreursEuler.pdf used on input line 34.
(pdftex.def)             Requested size: 360.0pt x 271.47131pt.


LaTeX Warning: `!h' float specifier changed to `!ht'.

<GrapheMilieu.pdf, id=7, 612.2875pt x 461.725pt>
File: GrapheMilieu.pdf Graphic file (type pdf)
 <use GrapheMilieu.pdf>
Package pdftex.def Info: GrapheMilieu.pdf used on input line 39.
(pdftex.def)             Requested size: 360.0pt x 271.47131pt.


LaTeX Warning: `!h' float specifier changed to `!ht'.

<ErreursMilieu.pdf, id=8, 612.2875pt x 461.725pt>
File: ErreursMilieu.pdf Graphic file (type pdf)
 <use ErreursMilieu.pdf>
Package pdftex.def Info: ErreursMilieu.pdf used on input line 46.
(pdftex.def)             Requested size: 360.0pt x 271.47131pt.


LaTeX Warning: `!h' float specifier changed to `!ht'.

<ErreursRK4.pdf, id=9, 612.2875pt x 461.725pt>
File: ErreursRK4.pdf Graphic file (type pdf)
 <use ErreursRK4.pdf>
Package pdftex.def Info: ErreursRK4.pdf used on input line 51.
(pdftex.def)             Requested size: 360.0pt x 271.47131pt.


LaTeX Warning: `!h' float specifier changed to `!ht'.

[1

{C:/ProgramData/MiKTeX/2.9/pdftex/config/pdftex.map} <./GrapheTousN20.pdf> <./GrapheTousN40.pdf>] [2 <./ErreursTousN20.p
df> <./ErreursTousN40.pdf>] [3 <./GrapheEuler.pdf> <./ErreursEuler.pdf>] [4 <./GrapheMilieu.pdf> <./ErreursMilieu.pdf>] 
[5 <./ErreursRK4.pdf>] (Application1.aux) ) 
Here is how much of TeX's memory you used:
 1521 strings out of 493329
 21813 string characters out of 3139036
 78812 words of memory out of 3000000
 5066 multiletter control sequences out of 15000+200000
 3940 words of font info for 15 fonts, out of 3000000 for 9000
 1141 hyphenation exceptions out of 8191
 39i,5n,25p,240b,216s stack positions out of 5000i,500n,10000p,200000b,50000s
<C:/Program Files/MiKTeX 2.9/fonts/type1/public/amsfonts/cm/cmr10.pfb>
Output written on Application1.pdf (5 pages, 492216 bytes).
PDF statistics:
 40 PDF objects out of 1000 (max. 8388607)
 0 named destinations out of 1000 (max. 500000)
 46 words of extra memory for PDF output out of 10000 (max. 10000000)

